/* XPM */
static const char *sitplus_logo_16x16[] = {
/* columns rows colors chars-per-pixel */
"16 16 134 2",
"   c #003466",
".  c #003668",
"X  c #00396B",
"o  c #003B6D",
"O  c #003C6E",
"+  c #003D6F",
"@  c #004072",
"#  c #004274",
"$  c #004376",
"%  c #004476",
"&  c #004D7F",
"*  c #084676",
"=  c #144978",
"-  c #004F82",
";  c #005183",
":  c #005385",
">  c #005486",
",  c #005588",
"<  c #005789",
"1  c #00588A",
"2  c #005A8C",
"3  c #006193",
"4  c #006194",
"5  c #006295",
"6  c #00679A",
"7  c #00689A",
"8  c #006A9D",
"9  c #006B9D",
"0  c #006B9E",
"q  c #006C9E",
"w  c #006DA0",
"e  c #006EA0",
"r  c #0071A4",
"t  c #0072A4",
"y  c #0075A7",
"u  c #0076A9",
"i  c #0078AA",
"p  c #0079AB",
"a  c #0079AC",
"s  c #007AAC",
"d  c #007DB0",
"f  c #2E739C",
"g  c #0099CB",
"h  c #0099CC",
"j  c #069BCC",
"k  c #0C9ECD",
"l  c #12A0CF",
"z  c #1AA3D0",
"x  c #1CA4D1",
"c  c #1EA5D1",
"v  c #1FA5D1",
"b  c #00B8EB",
"n  c #00BCEF",
"m  c #239AC6",
"M  c #2AAAD4",
"N  c #34AED6",
"B  c #39B0D6",
"V  c #00C1F4",
"C  c #00C4F7",
"Z  c #00CCFF",
"A  c #0CCEFF",
"S  c #19C4F2",
"D  c #32D6FF",
"F  c #47B5D9",
"G  c #50B9DB",
"H  c #56BBDC",
"J  c #57BCDD",
"K  c #59BDDD",
"L  c #5EBFDE",
"P  c #62BDDC",
"I  c #40D9FF",
"U  c #4BDBFF",
"Y  c #4EDCFF",
"T  c #52DCFF",
"R  c #59DEFF",
"E  c #5CDEFF",
"W  c #5DDFFF",
"Q  c #6DC4E1",
"!  c #6EC5E1",
"~  c #74C7E3",
"^  c #7ACAE4",
"/  c #7BCAE4",
"(  c #7DCBE4",
")  c #7ECBE5",
"_  c #64E0FF",
"`  c #67E1FF",
"'  c #69E1FF",
"]  c #70E2FF",
"[  c #75E3FF",
"{  c #7CE3FD",
"}  c #7EE5FF",
"|  c #95C8DD",
" . c #9DCADD",
".. c #80CCE5",
"X. c #81CDE5",
"o. c #8AD0E7",
"O. c #8CD1E8",
"+. c #96D7EC",
"@. c #9AD7EA",
"#. c #98DBEF",
"$. c #84E2FA",
"%. c #97E1F5",
"&. c #99E6FA",
"*. c #ABDFEE",
"=. c #AFDFEF",
"-. c #A2DEF0",
";. c #A7E0F1",
":. c #A3E8FB",
">. c #ADE2F2",
",. c #ADEFFF",
"<. c #B4E4F3",
"1. c #B4ECFB",
"2. c #B9E3F1",
"3. c #B8EDFB",
"4. c #B6F0FF",
"5. c #BEF0FD",
"6. c #C5EBF6",
"7. c #C7EAF4",
"8. c #D3F4FC",
"9. c #DAF0F7",
"0. c #D8F7FF",
"q. c #DFF4FA",
"w. c #E1F3F9",
"e. c #E0F7FD",
"r. c #E6F7FB",
"t. c #E7F7FC",
"y. c #E7F9FE",
"u. c #ECFBFE",
"i. c #EEFAFE",
"p. c #F3FBFD",
"a. c #F2FCFE",
"s. c #F2FCFF",
"d. c gray100",
"f. c None",
/* pixels */
"f.f.f.f.f.p 0 6 6 0 p f.f.f.f.f.",
"f.f.f.p > O < 0 e > . > p f.f.f.",
"f.f.u % d V Z Z Z Z C t @ u f.f.",
"f.p # w.} D Z A T R Z Z h # a f.",
"f.f | e.y.8.i.5.a.&.Z Z Z t > f.",
"p = i.r.p.t.q.<.7.:.' _ W S X p ",
"0 < Y ;.x g z j M / X./ *.T - 0 ",
"6 0 Z 1.B ( G g g J @.O./ ' 6 6 ",
"6 6 Z 1.! ,.9.g x 0.] 2.! [ 5 6 ",
"0 1 Z 1.H =.~ g l a.4.K L $.& 0 ",
"a O n 1.x g g g h k N g F %.. p ",
"f.> a 3.X.) X.o.+.#.-.>.6. .> f.",
"f.s % P { ' _ W Y U I D m * a f.",
"f.f.u @ t C Z Z Z Z b q @ u f.f.",
"f.f.f.p ; o ; 5 3 ; X > a f.f.f.",
"f.f.f.f.f.p 0 6 6 0 a f.f.f.f.f."
};
